{
    "shipments": [
        {
            "states": [
                {
                    "location": "George Bush Intcntl Houston (IAH), Houston, United States",
                    "date": "2023-10-14T12:45:00Z",
                    "carrier": 0,
                    "status": "Delivered (DLV)"
                },
                {
                    "location": "George Bush Intcntl Houston (IAH), Houston, United States",
                    "date": "2023-10-14T09:49:00Z",
                    "carrier": 0,
                    "status": "Ready for pick up (NFD)"
                },
                {
                    "location": "Dallas Fort Worth Intl (DFW), Dallas-fort Worth, United States",
                    "date": "2023-10-14T09:49:00Z",
                    "carrier": 0,
                    "status": "Received from flight (RCF)"
                },
                {
                    "location": "Dallas Fort Worth Intl (DFW), Dallas-fort Worth, United States",
                    "date": "2023-10-14T09:32:00Z",
                    "carrier": 0,
                    "status": "Flight arrived (ARR)"
                },
                {
                    "location": "Dallas Fort Worth Intl (DFW), Dallas-fort Worth, United States",
                    "date": "2023-10-14T08:22:00Z",
                    "carrier": 0,
                    "status": "Flight departed (DEP)"
                },
                {
                    "location": "Dallas Fort Worth Intl (DFW), Dallas-fort Worth, United States",
                    "date": "2023-10-14T01:29:00Z",
                    "carrier": 0,
                    "status": "Planned (MAN)"
                },
                {
                    "location": "Dallas Fort Worth Intl (DFW), Dallas-fort Worth, United States",
                    "date": "2023-10-14T00:10:00Z",
                    "carrier": 0,
                    "status": "Prepared for loading (PRE)"
                },
                {
                    "location": "Minneapolis St Paul Intl (MSP), Minneapolis, United States",
                    "date": "2023-10-14T00:09:00Z",
                    "carrier": 0,
                    "status": "Received from flight (RCF)"
                },
                {
                    "location": "Minneapolis St Paul Intl (MSP), Minneapolis, United States",
                    "date": "2023-10-13T20:51:00Z",
                    "carrier": 0,
                    "status": "Flight arrived (ARR)"
                },
                {
                    "location": "Minneapolis St Paul Intl (MSP), Minneapolis, United States",
                    "date": "2023-10-13T18:27:00Z",
                    "carrier": 0,
                    "status": "Flight departed (DEP)"
                },
                {
                    "location": "Minneapolis St Paul Intl (MSP), Minneapolis, United States",
                    "date": "2023-10-13T11:21:00Z",
                    "carrier": 0,
                    "status": "Planned (MAN)"
                },
                {
                    "location": "Minneapolis St Paul Intl (MSP), Minneapolis, United States",
                    "date": "2023-10-13T11:14:00Z",
                    "carrier": 0,
                    "status": "Prepared for loading (PRE)"
                },
                {
                    "location": "Minneapolis St Paul Intl (MSP), Minneapolis, United States",
                    "date": "2023-10-13T10:42:00Z",
                    "carrier": 0,
                    "status": "Offloaded (OFLD)"
                },
                {
                    "location": "Minneapolis St Paul Intl (MSP), Minneapolis, United States",
                    "date": "2023-10-12T19:39:00Z",
                    "carrier": 0,
                    "status": "Planned (MAN)"
                },
                {
                    "location": "Minneapolis St Paul Intl (MSP), Minneapolis, United States",
                    "date": "2023-10-12T19:38:00Z",
                    "carrier": 0,
                    "status": "Prepared for loading (PRE)"
                },
                {
                    "location": "Minneapolis St Paul Intl (MSP), Minneapolis, United States",
                    "date": "2023-10-12T18:28:00Z",
                    "carrier": 0,
                    "status": "Offloaded (OFLD)"
                },
                {
                    "location": "Minneapolis St Paul Intl (MSP), Minneapolis, United States",
                    "date": "2023-10-12T10:48:00Z",
                    "carrier": 0,
                    "status": "Planned (MAN)"
                },
                {
                    "location": "Minneapolis St Paul Intl (MSP), Minneapolis, United States",
                    "date": "2023-10-12T10:45:00Z",
                    "carrier": 0,
                    "status": "Accepted (RCS)"
                },
                {
                    "location": "Dallas Fort Worth Intl (DFW), Dallas-fort Worth, United States",
                    "date": "2023-10-11T17:54:00Z",
                    "carrier": 0,
                    "status": "Booked (BKD)"
                }
            ],
            "origin": "Minneapolis St Paul Intl (MSP), Minneapolis, United States",
            "destination": "George Bush Intcntl Houston (IAH), Houston, United States",
            "carriers": [
                "American Airlines Cargo"
            ],
            "externalTracking": [
                {
                    "url": "https://www.aacargo.com/mobile/tracking-details.html?awb=00177420512",
                    "method": "GET",
                    "slug": "american-airlines-cargo",
                    "title": "American Airlines Cargo"
                }
            ],
            "attributes": [
                {
                    "l": "tracking_id",
                    "val": "001-77420512"
                },
                {
                    "l": "origin",
                    "val": "Minneapolis St Paul Intl (MSP), Minneapolis, United States"
                },
                {
                    "l": "destination",
                    "val": "George Bush Intcntl Houston (IAH), Houston, United States"
                },
                {
                    "l": "sender",
                    "val": "SSAF LLC"
                },
                {
                    "l": "from",
                    "val": "Minneapolis/st Paul"
                },
                {
                    "l": "to",
                    "val": "Houston"
                },
                {
                    "l": "weight",
                    "val": "320.000L"
                },
                {
                    "l": "attr",
                    "n": "Pieces",
                    "val": "4"
                },
                {
                    "l": "days_transit",
                    "n": "Days in transit",
                    "val": "2"
                }
            ],
            "status": "delivered",
            "services": [
                {
                    "slug": "american-airlines-cargo",
                    "name": "American Airlines Cargo"
                }
            ],
            "trackingId": "001-77420512",
            "detectedCarrier": {
                "slug": "american-airlines-cargo",
                "name": "American Airlines Cargo"
            },
            "lastState": {
                "location": "George Bush Intcntl Houston (IAH), Houston, United States",
                "date": "2023-10-14T12:45:00Z",
                "carrier": 0,
                "status": "Delivered (DLV)"
            }
        }
    ],
    "done": true,
    "fromCache": true
}